16263 -1061 1644 332 5722 -186 116 45949 
16263 -1061 1644 332 5722 -186 116 46097 
16263 -1065 1644 332 5722 -186 117 46242 
16262 -1087 1643 334 5722 -186 119 46390 
16261 -1087 1649 334 5722 -186 119 46535 
16260 -1097 1649 335 5722 -186 120 46683 
16259 -1129 1638 339 5721 -185 124 46828 
16258 -1169 1621 340 5721 -183 128 46973 
16258 -1199 1600 341 5721 -181 132 47121 
16259 -1226 1568 321 5723 -177 135 47266 
16266 -1204 1523 272 5729 -172 133 47414 
16278 -1353 1266 140 5744 -142 151 47559 
16269 -1827 655 -15 1 -72 205 47707 
16225 -2272 96 -118 13 -8 255 47846 
16159 -2661 -430 -204 23 51 298 47985 
16067 -3039 -975 -313 36 118 345 48130 
15921 -3492 -1599 -450 51 185 394 48274 
15790 -3831 -2021 -594 68 236 434 48418 
15687 -4038 -2362 -675 78 275 460 48562 
15586 -4233 -2657 -731 85 309 485 48706 
15446 -4477 -3025 -804 96 355 521 48850 
15319 -4698 -3309 -866 103 385 549 48995 
15207 -4868 -3556 -907 109 413 574 49140 
15074 -5071 -3823 -946 114 443 604 49288 
15014 -5151 -3941 -968 118 456 617 49433 
14884 -5323 -4189 -1007 123 484 645 49578 
14654 -5625 -4578 -1056 131 527 696 49724 
14516 -5791 -4798 -1083 136 551 727 49870 
14358 -5976 -5031 -1115 141 577 764 50016 
14182 -6170 -5289 -1121 144 601 801 50162 
14080 -6288 -5415 -1156 150 616 825 50308 
13960 -6401 -5583 -1190 155 633 849 50456 
13781 -6546 -5840 -1253 166 661 885 50605 
13693 -6604 -5974 -1282 171 676 902 50751 
13607 -6700 -6067 -1262 169 683 925 50900 
13433 -6867 -6259 -1291 175 701 965 51046 
13299 -6980 -6414 -1315 180 715 996 51192 
13158 -7068 -6595 -1358 188 734 1025 51338 
13183 -7040 -6581 -1328 184 731 1020 51485 
13350 -6903 -6408 -1222 167 711 986 51632 
13578 -6715 -6149 -1087 146 681 939 51781 
13756 -6565 -5928 -980 130 655 903 51927 
14016 -6319 -5606 -801 104 616 851 52075 
14399 -5938 -5046 -618 78 554 772 52220 
1297 -5085 4966 -14705 2718 489 697 52367 
1312 -4511 4751 -14960 2719 434 642 52513 
1413 -3984 4494 -15178 2709 380 591 52659 
1587 -3124 4030 -15489 2692 291 510 52805 
1681 -2282 3585 -15734 2684 205 438 52951 
1729 -1606 3238 -15887 2681 136 385 53099 
1771 -986 2886 -16000 2676 68 332 53245 
1859 -260 2456 -16090 2669 -2 277 53391 
1879 402 2027 -16144 2667 -70 221 53535 
1839 872 1744 -16163 2672 -118 184 53679 
1804 1121 1632 -16164 2676 -144 169 53824 
1752 1195 1596 -16168 2682 -151 165 53970 
1757 1241 1498 -16173 2681 -155 153 54116 
1670 1261 1452 -16185 2691 -156 148 54264 
1599 1277 1421 -16193 2699 -157 145 54410 
1600 1276 1424 -16193 2699 -157 146 54558 
